127.0.0.1 - - [12/Feb/2024:10:37:50 +0530] "GET / HTTP/1.1" 404 751
0:0:0:0:0:0:0:1 - - [12/Feb/2024:10:37:51 +0530] "GET /EmpWebApp/Login HTTP/1.1" 500 54
0:0:0:0:0:0:0:1 - - [12/Feb/2024:10:38:01 +0530] "GET /EmpWebApp/Login HTTP/1.1" 500 54
0:0:0:0:0:0:0:1 - - [12/Feb/2024:10:38:21 +0530] "GET /EmpWebApp/Login HTTP/1.1" 500 54
0:0:0:0:0:0:0:1 - - [12/Feb/2024:10:38:46 +0530] "GET /EmpWebApp/Loginpost.html HTTP/1.1" 200 533
0:0:0:0:0:0:0:1 - - [12/Feb/2024:10:39:09 +0530] "GET /EmpWebApp/Login.html HTTP/1.1" 200 467
127.0.0.1 - - [12/Feb/2024:10:45:25 +0530] "GET / HTTP/1.1" 404 751
0:0:0:0:0:0:0:1 - - [12/Feb/2024:10:45:25 +0530] "GET /EmpWebApp/Login HTTP/1.1" 500 54
0:0:0:0:0:0:0:1 - - [12/Feb/2024:10:45:31 +0530] "GET /EmpWebApp/Login HTTP/1.1" 500 54
0:0:0:0:0:0:0:1 - - [12/Feb/2024:10:45:33 +0530] "GET /EmpWebApp/Login HTTP/1.1" 500 54
0:0:0:0:0:0:0:1 - - [12/Feb/2024:10:55:36 +0530] "GET /EmpWebApp/HRHomePage HTTP/1.1" 404 775
127.0.0.1 - - [12/Feb/2024:10:55:58 +0530] "GET / HTTP/1.1" 404 751
0:0:0:0:0:0:0:1 - - [12/Feb/2024:10:56:00 +0530] "GET /EmpWebApp/HRHomePage HTTP/1.1" 200 208
0:0:0:0:0:0:0:1 - - [12/Feb/2024:10:56:21 +0530] "GET /EmpWebApp/Login HTTP/1.1" 500 54
0:0:0:0:0:0:0:1 - - [12/Feb/2024:11:30:54 +0530] "GET /EmpWebApp/Login HTTP/1.1" 500 54
0:0:0:0:0:0:0:1 - - [12/Feb/2024:11:31:00 +0530] "GET /EmpWebApp/Login HTTP/1.1" 500 54
0:0:0:0:0:0:0:1 - - [12/Feb/2024:11:31:02 +0530] "GET /EmpWebApp/Login HTTP/1.1" 500 54
0:0:0:0:0:0:0:1 - - [12/Feb/2024:11:32:14 +0530] "GET /EmpWebApp/Login.html HTTP/1.1" 304 -
0:0:0:0:0:0:0:1 - - [12/Feb/2024:11:32:22 +0530] "GET /EmpWebApp/LoginServlet?emailId=HR&password=HR HTTP/1.1" 404 777
0:0:0:0:0:0:0:1 - - [12/Feb/2024:11:34:20 +0530] "GET /EmpWebApp/Login HTTP/1.1" 500 54
0:0:0:0:0:0:0:1 - - [12/Feb/2024:11:34:31 +0530] "GET /EmpWebApp/Login HTTP/1.1" 500 54
0:0:0:0:0:0:0:1 - - [12/Feb/2024:11:34:32 +0530] "GET /EmpWebApp/Login HTTP/1.1" 500 54
0:0:0:0:0:0:0:1 - - [12/Feb/2024:11:34:56 +0530] "GET /EmpWebApp/Login HTTP/1.1" 500 54
0:0:0:0:0:0:0:1 - - [12/Feb/2024:11:36:25 +0530] "GET /EmpWebApp/Login HTTP/1.1" 500 54
0:0:0:0:0:0:0:1 - - [12/Feb/2024:11:44:39 +0530] "GET /EmpWebApp/Login HTTP/1.1" 500 54
0:0:0:0:0:0:0:1 - - [12/Feb/2024:11:47:31 +0530] "GET /EmpWebApp/Login.html HTTP/1.1" 304 -
0:0:0:0:0:0:0:1 - - [12/Feb/2024:11:47:42 +0530] "GET /EmpWebApp/LoginServlet?emailId=HR&password=HR HTTP/1.1" 404 777
0:0:0:0:0:0:0:1 - - [12/Feb/2024:11:48:39 +0530] "GET /EmpWebApp/LoginServlet?emailId=HR&password=HR HTTP/1.1" 404 777
0:0:0:0:0:0:0:1 - - [12/Feb/2024:11:48:48 +0530] "GET /EmpWebApp/Login HTTP/1.1" 500 54
0:0:0:0:0:0:0:1 - - [12/Feb/2024:12:06:58 +0530] "GET /EmpWebApp/Login.html HTTP/1.1" 200 460
