INDEX VERSION 1.130+C:\FSD60\mysql\SprintBoot\Studentworkspace\.metadata\.plugins\org.eclipse.jdt.core
2220456953.index
3600471263.index
3684254619.index
2544073728.index
1803034502.index
3040837599.index
3975193034.index
1960683664.index
3320511973.index
2023249904.index
4022787785.index
1961815414.index
3240411859.index
3478371255.index
1487011912.index
4019421141.index
2994959823.index
3225567541.index
3348520720.index
4021827598.index
2283077158.index
3585638832.index
1015036904.index
2894991509.index
2885606711.index
542153213.index
1910702182.index
901618419.index
895354549.index
826355274.index
1008906578.index
265096375.index
1680318776.index
1510874285.index
1893911355.index
2507423472.index
610186490.index
4259073463.index
3319726154.index
3953809652.index
1972857142.index
3602769609.index
646915623.index
36841752.index
1753082784.index
637772862.index
2227277809.index
3048247827.index
813003991.index
3164384212.index
1625455577.index
2137442145.index
613266609.index
1946725198.index
2377610318.index
4160751709.index
3408154359.index
730504571.index
1956904976.index
2757599918.index
1899953381.index
3210854051.index
674573568.index
3644761064.index
1871564248.index
2782098400.index
520248321.index
1624080729.index
1306113250.index
328790701.index
3753500648.index
2115549793.index
983927642.index
103378668.index
2832015255.index
2066830214.index
3666306742.index
1272990989.index
772243840.index
1363063056.index
411227453.index
2720981119.index
885752094.index
1992841768.index
3702098218.index
3373575756.index
2516490047.index
1064149151.index
1847013800.index
4135958314.index
4138326577.index
4286989732.index
2186899505.index
1680788847.index
2884726522.index
2205283528.index
1065579752.index
1698329503.index
