INDEX VERSION 1.3+C:\FSD60\mysql\3.AdvJava\EmpWebAppWorkspace\.metadata\.plugins\org.eclipse.wst.jsdt.core\indexes
3792424753.index
212091781.index
2995815980.index
2100136755.index
3200438485.index
2889170302.index
3268989307.index
